…
``` r
# install.packages("remotes")
remotes::install_github("baslat/sak")
```

## Example

This is a basic example which shows you how to solve a common problem:

``` r
library(sak)
## What are the unique values in each non-numeric dataframe column?
sg(dplyr::storms)
#> [[1]]
#> # A tibble: 214 × 1
#>    name    
#>    <chr>   
#>  1 Amy     
#>  2 Caroline
#>  3 Doris   
#>  4 Belle   
#>  5 Gloria  
#>  6 Anita   
#>  7 Clara   
#>  8 Evelyn  
#>  9 Amelia  
#> 10 Bess    
#> # … with 204 more rows
…
